Importing and Exploring Data in R
…
The wbstats is an API for World Bank data

The OECDpackage is providing the API for the OECD database

The WID package is for the World Wealth and Income Database. It is a bit trickier to download though than our trusted install.packages(). Since it is not up on the CRAN repository we need to directly download the package from their developers github page, which contains the source code to it. The devtools package allows just that.

install.packages("devtools")
devtools::install_github("WIDworld/wid-r-tool")
library(wid)

QUICK EXCERCISE: read the help of the read_excel function and import in data to a new object where only the first 5 columns are imported.

The solution looks like this:

#> # A tibble: 194 x 5
#>    ccode cname               ccodealp ccodecow ccodewb
#>    <dbl> <chr>               <chr>       <dbl>   <dbl>
#>  1     4 Afghanistan         AFG           700       4
#>  2     8 Albania             ALB           339       8
#>  3    12 Algeria             DZA           615      12
#>  4    20 Andorra             AND           232      20
#>  5    24 Angola              AGO           540      24
#>  6    28 Antigua and Barbuda ATG            58      28
#>  7    31 Azerbaijan          AZE           373      31
#>  8    32 Argentina           ARG           160      32
#>  9    36 Australia           AUS           900      36
#> 10    40 Austria             AUT           305      40
#> # ... with 184 more rows
…
